## Interface: 50400
## Title: |cff00ff00TradeSkillMaster_Warehousing|r
## Notes: Manages your inventory by allowing you to easily move predefined groups of items between your bags, bank, and guild bank.
## Author: Sapu94, Bart39
## Version: v2.0.10
## SavedVariables: TradeSkillMaster_WarehousingDB
## Dependency: TradeSkillMaster
## X-Curse-Packaged-Version: v2.0.10
## X-Curse-Project-Name: TradeSkillMaster_Warehousing
## X-Curse-Project-ID: tradeskillmaster_warehousing
## X-Curse-Repository-ID: wow/tradeskillmaster_warehousing/mainline


Locale\enUS.lua
Locale\frFR.lua
Locale\deDE.lua
Locale\koKR.lua
Locale\esMX.lua
Locale\ruRU.lua
Locale\zhCN.lua
Locale\esES.lua
Locale\zhTW.lua
Locale\ptBR.lua

TradeSkillMaster_Warehousing.lua
Modules\options.lua
Modules\move.lua
Modules\util.lua
Modules\data.lua
Modules\bankui.lua
